%YAML 1.1
%TAG !u! tag:unity3d.com,2011:
--- !u!1045 &1
EditorBuildSettings:
  m_ObjectHideFlags: 0
  serializedVersion: 2
  m_Scenes:
  - enabled: 0
    path: Assets/Scenes/charachter_list_scene.unity
  - enabled: 1
    path: Assets/Scenes/main_menu_scene.unity
  - enabled: 1
    path: Assets/Scenes/game_scene.unity
  - enabled: 1
    path: Assets/Scenes/character_list_scene.unity
  - enabled: 1
    path: Assets/Scenes/record_scene.unity
